{
    "alias": "",
    "apiVersion": "45.0",
    "deployOptions": {
        "allowMissingFiles": true,
        "checkOnly": false,
        "ignoreWarnings": true,
        "purgeOnDelete": false,
        "rollbackOnError": true,
        "runTests": [],
        "singlePackage": true,
        "testLevel": "RunLocalTests"
    },
    "overwritePackageXML": false,
    "poll": 2000,
    "prefix": "",
    "showTestCoverage": true,
    "spaDist": "dist",
    "src": "src",
    "staticResourceCacheControl": "Private",
    "username": "baciliooscar@playful-badger-us4040.com",
    "url": "https://login.salesforce.com",
    "autoCompile": false
}